^D:\DROPBOX\DEVELOPMENT\GAMES\GAME A MONTH\02 - TETRIS\TETRIS\DEBUG\APPLICATION.OBJ|D:\DROPBOX\DEVELOPMENT\GAMES\GAME A MONTH\02 - TETRIS\TETRIS\DEBUG\BOARD.OBJ|D:\DROPBOX\DEVELOPMENT\GAMES\GAME A MONTH\02 - TETRIS\TETRIS\DEBUG\BUTTON.OBJ|D:\DROPBOX\DEVELOPMENT\GAMES\GAME A MONTH\02 - TETRIS\TETRIS\DEBUG\COMMAND.OBJ|D:\DROPBOX\DEVELOPMENT\GAMES\GAME A MONTH\02 - TETRIS\TETRIS\DEBUG\COMMANDQUEUE.OBJ|D:\DROPBOX\DEVELOPMENT\GAMES\GAME A MONTH\02 - TETRIS\TETRIS\DEBUG\COMPONENT.OBJ|D:\DROPBOX\DEVELOPMENT\GAMES\GAME A MONTH\02 - TETRIS\TETRIS\DEBUG\CONTAINER.OBJ|D:\DROPBOX\DEVELOPMENT\GAMES\GAME A MONTH\02 - TETRIS\TETRIS\DEBUG\ENTITY.OBJ|D:\DROPBOX\DEVELOPMENT\GAMES\GAME A MONTH\02 - TETRIS\TETRIS\DEBUG\GAMESTATE.OBJ|D:\DROPBOX\DEVELOPMENT\GAMES\GAME A MONTH\02 - TETRIS\TETRIS\DEBUG\LABEL.OBJ|D:\DROPBOX\DEVELOPMENT\GAMES\GAME A MONTH\02 - TETRIS\TETRIS\DEBUG\LOADINGSTATE.OBJ|D:\DROPBOX\DEVELOPMENT\GAMES\GAME A MONTH\02 - TETRIS\TETRIS\DEBUG\MAIN.OBJ|D:\DROPBOX\DEVELOPMENT\GAMES\GAME A MONTH\02 - TETRIS\TETRIS\DEBUG\MENUSTATE.OBJ|D:\DROPBOX\DEVELOPMENT\GAMES\GAME A MONTH\02 - TETRIS\TETRIS\DEBUG\PARALLELTASK.OBJ|D:\DROPBOX\DEVELOPMENT\GAMES\GAME A MONTH\02 - TETRIS\TETRIS\DEBUG\PAUSESTATE.OBJ|D:\DROPBOX\DEVELOPMENT\GAMES\GAME A MONTH\02 - TETRIS\TETRIS\DEBUG\PLAYER.OBJ|D:\DROPBOX\DEVELOPMENT\GAMES\GAME A MONTH\02 - TETRIS\TETRIS\DEBUG\RESOURCEPATH.OBJ|D:\DROPBOX\DEVELOPMENT\GAMES\GAME A MONTH\02 - TETRIS\TETRIS\DEBUG\SCENENODE.OBJ|D:\DROPBOX\DEVELOPMENT\GAMES\GAME A MONTH\02 - TETRIS\TETRIS\DEBUG\SETTINGSSTATE.OBJ|D:\DROPBOX\DEVELOPMENT\GAMES\GAME A MONTH\02 - TETRIS\TETRIS\DEBUG\SPRITENODE.OBJ|D:\DROPBOX\DEVELOPMENT\GAMES\GAME A MONTH\02 - TETRIS\TETRIS\DEBUG\STATE.OBJ|D:\DROPBOX\DEVELOPMENT\GAMES\GAME A MONTH\02 - TETRIS\TETRIS\DEBUG\STATESTACK.OBJ|D:\DROPBOX\DEVELOPMENT\GAMES\GAME A MONTH\02 - TETRIS\TETRIS\DEBUG\TETROMINO.OBJ|D:\DROPBOX\DEVELOPMENT\GAMES\GAME A MONTH\02 - TETRIS\TETRIS\DEBUG\TITLESTATE.OBJ|D:\DROPBOX\DEVELOPMENT\GAMES\GAME A MONTH\02 - TETRIS\TETRIS\DEBUG\UTILITY.OBJ
D:\DROPBOX\DEVELOPMENT\SFML SDK\VS 2013\X86\SFML-2.2\LIB\SFML-MAIN-D.LIB
D:\DROPBOX\DEVELOPMENT\SFML SDK\VS 2013\X86\SFML-2.2\LIB\SFML-GRAPHICS-S-D.LIB
D:\DROPBOX\DEVELOPMENT\SFML SDK\VS 2013\X86\SFML-2.2\LIB\SFML-WINDOW-S-D.LIB
D:\DROPBOX\DEVELOPMENT\SFML SDK\VS 2013\X86\SFML-2.2\LIB\SFML-SYSTEM-S-D.LIB
D:\DROPBOX\DEVELOPMENT\SFML SDK\VS 2013\X86\SFML-2.2\LIB\SFML-NETWORK-S-D.LIB
D:\DROPBOX\DEVELOPMENT\SFML SDK\VS 2013\X86\SFML-2.2\LIB\SFML-AUDIO-S-D.LIB
C:\PROGRAM FILES (X86)\WINDOWS KITS\8.1\LIB\WINV6.3\UM\X86\WINMM.LIB
C:\PROGRAM FILES (X86)\WINDOWS KITS\8.1\LIB\WINV6.3\UM\X86\WS2_32.LIB
D:\DROPBOX\DEVELOPMENT\SFML SDK\VS 2013\X86\SFML-2.2\LIB\SNDFILE.LIB
D:\DROPBOX\DEVELOPMENT\SFML SDK\VS 2013\X86\SFML-2.2\LIB\OPENAL32.LIB
C:\PROGRAM FILES (X86)\WINDOWS KITS\8.1\LIB\WINV6.3\UM\X86\OPENGL32.LIB
C:\PROGRAM FILES (X86)\WINDOWS KITS\8.1\LIB\WINV6.3\UM\X86\GDI32.LIB
D:\DROPBOX\DEVELOPMENT\SFML SDK\VS 2013\X86\SFML-2.2\LIB\GLEW.LIB
D:\DROPBOX\DEVELOPMENT\SFML SDK\VS 2013\X86\SFML-2.2\LIB\FREETYPE.LIB
D:\DROPBOX\DEVELOPMENT\SFML SDK\VS 2013\X86\SFML-2.2\LIB\JPEG.LIB
C:\PROGRAM FILES (X86)\WINDOWS KITS\8.1\LIB\WINV6.3\UM\X86\KERNEL32.LIB
C:\PROGRAM FILES (X86)\WINDOWS KITS\8.1\LIB\WINV6.3\UM\X86\USER32.LIB
C:\PROGRAM FILES (X86)\WINDOWS KITS\8.1\LIB\WINV6.3\UM\X86\WINSPOOL.LIB
C:\PROGRAM FILES (X86)\WINDOWS KITS\8.1\LIB\WINV6.3\UM\X86\COMDLG32.LIB
C:\PROGRAM FILES (X86)\WINDOWS KITS\8.1\LIB\WINV6.3\UM\X86\ADVAPI32.LIB
C:\PROGRAM FILES (X86)\WINDOWS KITS\8.1\LIB\WINV6.3\UM\X86\SHELL32.LIB
C:\PROGRAM FILES (X86)\WINDOWS KITS\8.1\LIB\WINV6.3\UM\X86\OLE32.LIB
C:\PROGRAM FILES (X86)\WINDOWS KITS\8.1\LIB\WINV6.3\UM\X86\OLEAUT32.LIB
C:\PROGRAM FILES (X86)\WINDOWS KITS\8.1\LIB\WINV6.3\UM\X86\UUID.LIB
C:\PROGRAM FILES (X86)\WINDOWS KITS\8.1\LIB\WINV6.3\UM\X86\ODBC32.LIB
C:\PROGRAM FILES (X86)\WINDOWS KITS\8.1\LIB\WINV6.3\UM\X86\ODBCCP32.LIB
D:\DROPBOX\DEVELOPMENT\GAMES\GAME A MONTH\02 - TETRIS\TETRIS\DEBUG\MAIN.OBJ
D:\DROPBOX\DEVELOPMENT\GAMES\GAME A MONTH\02 - TETRIS\TETRIS\DEBUG\APPLICATION.OBJ
D:\DROPBOX\DEVELOPMENT\GAMES\GAME A MONTH\02 - TETRIS\TETRIS\DEBUG\BUTTON.OBJ
D:\DROPBOX\DEVELOPMENT\GAMES\GAME A MONTH\02 - TETRIS\TETRIS\DEBUG\COMMAND.OBJ
D:\DROPBOX\DEVELOPMENT\GAMES\GAME A MONTH\02 - TETRIS\TETRIS\DEBUG\COMMANDQUEUE.OBJ
D:\DROPBOX\DEVELOPMENT\GAMES\GAME A MONTH\02 - TETRIS\TETRIS\DEBUG\COMPONENT.OBJ
D:\DROPBOX\DEVELOPMENT\GAMES\GAME A MONTH\02 - TETRIS\TETRIS\DEBUG\CONTAINER.OBJ
D:\DROPBOX\DEVELOPMENT\GAMES\GAME A MONTH\02 - TETRIS\TETRIS\DEBUG\ENTITY.OBJ
D:\DROPBOX\DEVELOPMENT\GAMES\GAME A MONTH\02 - TETRIS\TETRIS\DEBUG\GAMESTATE.OBJ
D:\DROPBOX\DEVELOPMENT\GAMES\GAME A MONTH\02 - TETRIS\TETRIS\DEBUG\LABEL.OBJ
D:\DROPBOX\DEVELOPMENT\GAMES\GAME A MONTH\02 - TETRIS\TETRIS\DEBUG\LOADINGSTATE.OBJ
D:\DROPBOX\DEVELOPMENT\GAMES\GAME A MONTH\02 - TETRIS\TETRIS\DEBUG\MENUSTATE.OBJ
D:\DROPBOX\DEVELOPMENT\GAMES\GAME A MONTH\02 - TETRIS\TETRIS\DEBUG\PARALLELTASK.OBJ
D:\DROPBOX\DEVELOPMENT\GAMES\GAME A MONTH\02 - TETRIS\TETRIS\DEBUG\PAUSESTATE.OBJ
D:\DROPBOX\DEVELOPMENT\GAMES\GAME A MONTH\02 - TETRIS\TETRIS\DEBUG\PLAYER.OBJ
D:\DROPBOX\DEVELOPMENT\GAMES\GAME A MONTH\02 - TETRIS\TETRIS\DEBUG\RESOURCEPATH.OBJ
D:\DROPBOX\DEVELOPMENT\GAMES\GAME A MONTH\02 - TETRIS\TETRIS\DEBUG\SCENENODE.OBJ
D:\DROPBOX\DEVELOPMENT\GAMES\GAME A MONTH\02 - TETRIS\TETRIS\DEBUG\SETTINGSSTATE.OBJ
D:\DROPBOX\DEVELOPMENT\GAMES\GAME A MONTH\02 - TETRIS\TETRIS\DEBUG\SPRITENODE.OBJ
D:\DROPBOX\DEVELOPMENT\GAMES\GAME A MONTH\02 - TETRIS\TETRIS\DEBUG\STATE.OBJ
D:\DROPBOX\DEVELOPMENT\GAMES\GAME A MONTH\02 - TETRIS\TETRIS\DEBUG\STATESTACK.OBJ
D:\DROPBOX\DEVELOPMENT\GAMES\GAME A MONTH\02 - TETRIS\TETRIS\DEBUG\TETROMINO.OBJ
D:\DROPBOX\DEVELOPMENT\GAMES\GAME A MONTH\02 - TETRIS\TETRIS\DEBUG\TITLESTATE.OBJ
D:\DROPBOX\DEVELOPMENT\GAMES\GAME A MONTH\02 - TETRIS\TETRIS\DEBUG\UTILITY.OBJ
D:\DROPBOX\DEVELOPMENT\GAMES\GAME A MONTH\02 - TETRIS\TETRIS\DEBUG\BOARD.OBJ
C:\WINDOWS\SYSTEM32\TZRES.DLL
C:\WINDOWS\GLOBALIZATION\SORTING\SORTDEFAULT.NLS
C:\PROGRAM FILES (X86)\MICROSOFT VISUAL STUDIO 12.0\VC\LIB\MSVCPRTD.LIB
C:\PROGRAM FILES (X86)\MICROSOFT VISUAL STUDIO 12.0\VC\LIB\MSVCRTD.LIB
C:\PROGRAM FILES (X86)\MICROSOFT VISUAL STUDIO 12.0\VC\LIB\OLDNAMES.LIB
