^D:\DROPBOX\DEVELOPMENT\GAMES\GAME A MONTH\02 - TETRIS\TETRIS\MAIN.CPP|D:\DROPBOX\DEVELOPMENT\GAMES\GAME A MONTH\02 - TETRIS\TETRIS\SOURCE\APPLICATION.CPP|D:\DROPBOX\DEVELOPMENT\GAMES\GAME A MONTH\02 - TETRIS\TETRIS\SOURCE\AVATAR.CPP|D:\DROPBOX\DEVELOPMENT\GAMES\GAME A MONTH\02 - TETRIS\TETRIS\SOURCE\BUTTON.CPP|D:\DROPBOX\DEVELOPMENT\GAMES\GAME A MONTH\02 - TETRIS\TETRIS\SOURCE\COMMAND.CPP|D:\DROPBOX\DEVELOPMENT\GAMES\GAME A MONTH\02 - TETRIS\TETRIS\SOURCE\COMMANDQUEUE.CPP|D:\DROPBOX\DEVELOPMENT\GAMES\GAME A MONTH\02 - TETRIS\TETRIS\SOURCE\COMPONENT.CPP|D:\DROPBOX\DEVELOPMENT\GAMES\GAME A MONTH\02 - TETRIS\TETRIS\SOURCE\CONTAINER.CPP|D:\DROPBOX\DEVELOPMENT\GAMES\GAME A MONTH\02 - TETRIS\TETRIS\SOURCE\ENTITY.CPP|D:\DROPBOX\DEVELOPMENT\GAMES\GAME A MONTH\02 - TETRIS\TETRIS\SOURCE\GAMESTATE.CPP|D:\DROPBOX\DEVELOPMENT\GAMES\GAME A MONTH\02 - TETRIS\TETRIS\SOURCE\LABEL.CPP|D:\DROPBOX\DEVELOPMENT\GAMES\GAME A MONTH\02 - TETRIS\TETRIS\SOURCE\LOADINGSTATE.CPP|D:\DROPBOX\DEVELOPMENT\GAMES\GAME A MONTH\02 - TETRIS\TETRIS\SOURCE\MENUSTATE.CPP|D:\DROPBOX\DEVELOPMENT\GAMES\GAME A MONTH\02 - TETRIS\TETRIS\SOURCE\PARALLELTASK.CPP|D:\DROPBOX\DEVELOPMENT\GAMES\GAME A MONTH\02 - TETRIS\TETRIS\SOURCE\PAUSESTATE.CPP|D:\DROPBOX\DEVELOPMENT\GAMES\GAME A MONTH\02 - TETRIS\TETRIS\SOURCE\PLAYER.CPP|D:\DROPBOX\DEVELOPMENT\GAMES\GAME A MONTH\02 - TETRIS\TETRIS\SOURCE\RESOURCEPATH.CPP|D:\DROPBOX\DEVELOPMENT\GAMES\GAME A MONTH\02 - TETRIS\TETRIS\SOURCE\SCENENODE.CPP|D:\DROPBOX\DEVELOPMENT\GAMES\GAME A MONTH\02 - TETRIS\TETRIS\SOURCE\SETTINGSSTATE.CPP|D:\DROPBOX\DEVELOPMENT\GAMES\GAME A MONTH\02 - TETRIS\TETRIS\SOURCE\SPRITENODE.CPP|D:\DROPBOX\DEVELOPMENT\GAMES\GAME A MONTH\02 - TETRIS\TETRIS\SOURCE\STATE.CPP|D:\DROPBOX\DEVELOPMENT\GAMES\GAME A MONTH\02 - TETRIS\TETRIS\SOURCE\STATESTACK.CPP|D:\DROPBOX\DEVELOPMENT\GAMES\GAME A MONTH\02 - TETRIS\TETRIS\SOURCE\TITLESTATE.CPP|D:\DROPBOX\DEVELOPMENT\GAMES\GAME A MONTH\02 - TETRIS\TETRIS\SOURCE\UTILITY.CPP|D:\DROPBOX\DEVELOPMENT\GAMES\GAME A MONTH\02 - TETRIS\TETRIS\SOURCE\WORLD.CPP
D:\DROPBOX\DEVELOPMENT\GAMES\GAME A MONTH\02 - TETRIS\TETRIS\RELEASE\VC120.PDB
D:\DROPBOX\DEVELOPMENT\GAMES\GAME A MONTH\02 - TETRIS\TETRIS\RELEASE\SPRITENODE.OBJ
D:\DROPBOX\DEVELOPMENT\GAMES\GAME A MONTH\02 - TETRIS\TETRIS\RELEASE\SETTINGSSTATE.OBJ
D:\DROPBOX\DEVELOPMENT\GAMES\GAME A MONTH\02 - TETRIS\TETRIS\RELEASE\SCENENODE.OBJ
D:\DROPBOX\DEVELOPMENT\GAMES\GAME A MONTH\02 - TETRIS\TETRIS\RELEASE\RESOURCEPATH.OBJ
D:\DROPBOX\DEVELOPMENT\GAMES\GAME A MONTH\02 - TETRIS\TETRIS\RELEASE\PLAYER.OBJ
D:\DROPBOX\DEVELOPMENT\GAMES\GAME A MONTH\02 - TETRIS\TETRIS\RELEASE\PAUSESTATE.OBJ
D:\DROPBOX\DEVELOPMENT\GAMES\GAME A MONTH\02 - TETRIS\TETRIS\RELEASE\PARALLELTASK.OBJ
D:\DROPBOX\DEVELOPMENT\GAMES\GAME A MONTH\02 - TETRIS\TETRIS\RELEASE\MENUSTATE.OBJ
D:\DROPBOX\DEVELOPMENT\GAMES\GAME A MONTH\02 - TETRIS\TETRIS\RELEASE\LOADINGSTATE.OBJ
D:\DROPBOX\DEVELOPMENT\GAMES\GAME A MONTH\02 - TETRIS\TETRIS\RELEASE\LABEL.OBJ
D:\DROPBOX\DEVELOPMENT\GAMES\GAME A MONTH\02 - TETRIS\TETRIS\RELEASE\GAMESTATE.OBJ
D:\DROPBOX\DEVELOPMENT\GAMES\GAME A MONTH\02 - TETRIS\TETRIS\RELEASE\AVATAR.OBJ
D:\DROPBOX\DEVELOPMENT\GAMES\GAME A MONTH\02 - TETRIS\TETRIS\RELEASE\ENTITY.OBJ
D:\DROPBOX\DEVELOPMENT\GAMES\GAME A MONTH\02 - TETRIS\TETRIS\RELEASE\CONTAINER.OBJ
D:\DROPBOX\DEVELOPMENT\GAMES\GAME A MONTH\02 - TETRIS\TETRIS\RELEASE\COMPONENT.OBJ
D:\DROPBOX\DEVELOPMENT\GAMES\GAME A MONTH\02 - TETRIS\TETRIS\RELEASE\COMMANDQUEUE.OBJ
D:\DROPBOX\DEVELOPMENT\GAMES\GAME A MONTH\02 - TETRIS\TETRIS\RELEASE\COMMAND.OBJ
D:\DROPBOX\DEVELOPMENT\GAMES\GAME A MONTH\02 - TETRIS\TETRIS\RELEASE\BUTTON.OBJ
D:\DROPBOX\DEVELOPMENT\GAMES\GAME A MONTH\02 - TETRIS\TETRIS\RELEASE\APPLICATION.OBJ
D:\DROPBOX\DEVELOPMENT\GAMES\GAME A MONTH\02 - TETRIS\TETRIS\RELEASE\MAIN.OBJ
D:\DROPBOX\DEVELOPMENT\GAMES\GAME A MONTH\02 - TETRIS\TETRIS\RELEASE\WORLD.OBJ
D:\DROPBOX\DEVELOPMENT\GAMES\GAME A MONTH\02 - TETRIS\TETRIS\RELEASE\UTILITY.OBJ
D:\DROPBOX\DEVELOPMENT\GAMES\GAME A MONTH\02 - TETRIS\TETRIS\RELEASE\TITLESTATE.OBJ
D:\DROPBOX\DEVELOPMENT\GAMES\GAME A MONTH\02 - TETRIS\TETRIS\RELEASE\STATESTACK.OBJ
D:\DROPBOX\DEVELOPMENT\GAMES\GAME A MONTH\02 - TETRIS\TETRIS\RELEASE\STATE.OBJ
^D:\DROPBOX\DEVELOPMENT\GAMES\GAME A MONTH\02 - TETRIS\TETRIS\SOURCE\COMMAND.CPP
D:\DROPBOX\DEVELOPMENT\GAMES\GAME A MONTH\02 - TETRIS\TETRIS\RELEASE\VC120.PDB
^D:\DROPBOX\DEVELOPMENT\GAMES\GAME A MONTH\02 - TETRIS\TETRIS\SOURCE\COMMANDQUEUE.CPP
D:\DROPBOX\DEVELOPMENT\GAMES\GAME A MONTH\02 - TETRIS\TETRIS\RELEASE\VC120.PDB
^D:\DROPBOX\DEVELOPMENT\GAMES\GAME A MONTH\02 - TETRIS\TETRIS\SOURCE\COMPONENT.CPP
D:\DROPBOX\DEVELOPMENT\GAMES\GAME A MONTH\02 - TETRIS\TETRIS\RELEASE\VC120.PDB
^D:\DROPBOX\DEVELOPMENT\GAMES\GAME A MONTH\02 - TETRIS\TETRIS\SOURCE\CONTAINER.CPP
D:\DROPBOX\DEVELOPMENT\GAMES\GAME A MONTH\02 - TETRIS\TETRIS\RELEASE\VC120.PDB
^D:\DROPBOX\DEVELOPMENT\GAMES\GAME A MONTH\02 - TETRIS\TETRIS\SOURCE\ENTITY.CPP
D:\DROPBOX\DEVELOPMENT\GAMES\GAME A MONTH\02 - TETRIS\TETRIS\RELEASE\VC120.PDB
^D:\DROPBOX\DEVELOPMENT\GAMES\GAME A MONTH\02 - TETRIS\TETRIS\SOURCE\PARALLELTASK.CPP
D:\DROPBOX\DEVELOPMENT\GAMES\GAME A MONTH\02 - TETRIS\TETRIS\RELEASE\VC120.PDB
^D:\DROPBOX\DEVELOPMENT\GAMES\GAME A MONTH\02 - TETRIS\TETRIS\SOURCE\RESOURCEPATH.CPP
D:\DROPBOX\DEVELOPMENT\GAMES\GAME A MONTH\02 - TETRIS\TETRIS\RELEASE\VC120.PDB
^D:\DROPBOX\DEVELOPMENT\GAMES\GAME A MONTH\02 - TETRIS\TETRIS\SOURCE\SCENENODE.CPP
D:\DROPBOX\DEVELOPMENT\GAMES\GAME A MONTH\02 - TETRIS\TETRIS\RELEASE\VC120.PDB
^D:\DROPBOX\DEVELOPMENT\GAMES\GAME A MONTH\02 - TETRIS\TETRIS\SOURCE\SPRITENODE.CPP
D:\DROPBOX\DEVELOPMENT\GAMES\GAME A MONTH\02 - TETRIS\TETRIS\RELEASE\VC120.PDB
^D:\DROPBOX\DEVELOPMENT\GAMES\GAME A MONTH\02 - TETRIS\TETRIS\SOURCE\UTILITY.CPP
D:\DROPBOX\DEVELOPMENT\GAMES\GAME A MONTH\02 - TETRIS\TETRIS\RELEASE\VC120.PDB
^D:\DROPBOX\DEVELOPMENT\GAMES\GAME A MONTH\02 - TETRIS\TETRIS\SOURCE\WORLD.CPP
D:\DROPBOX\DEVELOPMENT\GAMES\GAME A MONTH\02 - TETRIS\TETRIS\RELEASE\VC120.PDB
^D:\DROPBOX\DEVELOPMENT\GAMES\GAME A MONTH\02 - TETRIS\TETRIS\SOURCE\APPLICATION.CPP|D:\DROPBOX\DEVELOPMENT\GAMES\GAME A MONTH\02 - TETRIS\TETRIS\SOURCE\BOARD.CPP|D:\DROPBOX\DEVELOPMENT\GAMES\GAME A MONTH\02 - TETRIS\TETRIS\SOURCE\GAMESTATE.CPP
D:\DROPBOX\DEVELOPMENT\GAMES\GAME A MONTH\02 - TETRIS\TETRIS\RELEASE\VC120.PDB
D:\DROPBOX\DEVELOPMENT\GAMES\GAME A MONTH\02 - TETRIS\TETRIS\RELEASE\GAMESTATE.OBJ
D:\DROPBOX\DEVELOPMENT\GAMES\GAME A MONTH\02 - TETRIS\TETRIS\RELEASE\APPLICATION.OBJ
^D:\DROPBOX\DEVELOPMENT\GAMES\GAME A MONTH\02 - TETRIS\TETRIS\MAIN.CPP|D:\DROPBOX\DEVELOPMENT\GAMES\GAME A MONTH\02 - TETRIS\TETRIS\SOURCE\APPLICATION.CPP|D:\DROPBOX\DEVELOPMENT\GAMES\GAME A MONTH\02 - TETRIS\TETRIS\SOURCE\AVATAR.CPP|D:\DROPBOX\DEVELOPMENT\GAMES\GAME A MONTH\02 - TETRIS\TETRIS\SOURCE\BOARD.CPP|D:\DROPBOX\DEVELOPMENT\GAMES\GAME A MONTH\02 - TETRIS\TETRIS\SOURCE\BUTTON.CPP|D:\DROPBOX\DEVELOPMENT\GAMES\GAME A MONTH\02 - TETRIS\TETRIS\SOURCE\GAMESTATE.CPP|D:\DROPBOX\DEVELOPMENT\GAMES\GAME A MONTH\02 - TETRIS\TETRIS\SOURCE\LABEL.CPP|D:\DROPBOX\DEVELOPMENT\GAMES\GAME A MONTH\02 - TETRIS\TETRIS\SOURCE\LOADINGSTATE.CPP|D:\DROPBOX\DEVELOPMENT\GAMES\GAME A MONTH\02 - TETRIS\TETRIS\SOURCE\MENUSTATE.CPP|D:\DROPBOX\DEVELOPMENT\GAMES\GAME A MONTH\02 - TETRIS\TETRIS\SOURCE\PAUSESTATE.CPP|D:\DROPBOX\DEVELOPMENT\GAMES\GAME A MONTH\02 - TETRIS\TETRIS\SOURCE\PLAYER.CPP|D:\DROPBOX\DEVELOPMENT\GAMES\GAME A MONTH\02 - TETRIS\TETRIS\SOURCE\SETTINGSSTATE.CPP|D:\DROPBOX\DEVELOPMENT\GAMES\GAME A MONTH\02 - TETRIS\TETRIS\SOURCE\STATE.CPP|D:\DROPBOX\DEVELOPMENT\GAMES\GAME A MONTH\02 - TETRIS\TETRIS\SOURCE\STATESTACK.CPP|D:\DROPBOX\DEVELOPMENT\GAMES\GAME A MONTH\02 - TETRIS\TETRIS\SOURCE\TETROMINO.CPP|D:\DROPBOX\DEVELOPMENT\GAMES\GAME A MONTH\02 - TETRIS\TETRIS\SOURCE\TITLESTATE.CPP
D:\DROPBOX\DEVELOPMENT\GAMES\GAME A MONTH\02 - TETRIS\TETRIS\RELEASE\VC120.PDB
D:\DROPBOX\DEVELOPMENT\GAMES\GAME A MONTH\02 - TETRIS\TETRIS\RELEASE\TITLESTATE.OBJ
D:\DROPBOX\DEVELOPMENT\GAMES\GAME A MONTH\02 - TETRIS\TETRIS\RELEASE\STATESTACK.OBJ
D:\DROPBOX\DEVELOPMENT\GAMES\GAME A MONTH\02 - TETRIS\TETRIS\RELEASE\STATE.OBJ
D:\DROPBOX\DEVELOPMENT\GAMES\GAME A MONTH\02 - TETRIS\TETRIS\RELEASE\SETTINGSSTATE.OBJ
D:\DROPBOX\DEVELOPMENT\GAMES\GAME A MONTH\02 - TETRIS\TETRIS\RELEASE\PLAYER.OBJ
D:\DROPBOX\DEVELOPMENT\GAMES\GAME A MONTH\02 - TETRIS\TETRIS\RELEASE\PAUSESTATE.OBJ
D:\DROPBOX\DEVELOPMENT\GAMES\GAME A MONTH\02 - TETRIS\TETRIS\RELEASE\MENUSTATE.OBJ
D:\DROPBOX\DEVELOPMENT\GAMES\GAME A MONTH\02 - TETRIS\TETRIS\RELEASE\LOADINGSTATE.OBJ
D:\DROPBOX\DEVELOPMENT\GAMES\GAME A MONTH\02 - TETRIS\TETRIS\RELEASE\LABEL.OBJ
D:\DROPBOX\DEVELOPMENT\GAMES\GAME A MONTH\02 - TETRIS\TETRIS\RELEASE\GAMESTATE.OBJ
D:\DROPBOX\DEVELOPMENT\GAMES\GAME A MONTH\02 - TETRIS\TETRIS\RELEASE\BUTTON.OBJ
D:\DROPBOX\DEVELOPMENT\GAMES\GAME A MONTH\02 - TETRIS\TETRIS\RELEASE\APPLICATION.OBJ
D:\DROPBOX\DEVELOPMENT\GAMES\GAME A MONTH\02 - TETRIS\TETRIS\RELEASE\MAIN.OBJ
^D:\DROPBOX\DEVELOPMENT\GAMES\GAME A MONTH\02 - TETRIS\TETRIS\MAIN.CPP
D:\DROPBOX\DEVELOPMENT\GAMES\GAME A MONTH\02 - TETRIS\TETRIS\RELEASE\MAIN.OBJ
^D:\DROPBOX\DEVELOPMENT\GAMES\GAME A MONTH\02 - TETRIS\TETRIS\SOURCE\APPLICATION.CPP
D:\DROPBOX\DEVELOPMENT\GAMES\GAME A MONTH\02 - TETRIS\TETRIS\RELEASE\APPLICATION.OBJ
^D:\DROPBOX\DEVELOPMENT\GAMES\GAME A MONTH\02 - TETRIS\TETRIS\SOURCE\BUTTON.CPP
D:\DROPBOX\DEVELOPMENT\GAMES\GAME A MONTH\02 - TETRIS\TETRIS\RELEASE\BUTTON.OBJ
^D:\DROPBOX\DEVELOPMENT\GAMES\GAME A MONTH\02 - TETRIS\TETRIS\SOURCE\GAMESTATE.CPP
D:\DROPBOX\DEVELOPMENT\GAMES\GAME A MONTH\02 - TETRIS\TETRIS\RELEASE\GAMESTATE.OBJ
^D:\DROPBOX\DEVELOPMENT\GAMES\GAME A MONTH\02 - TETRIS\TETRIS\SOURCE\LABEL.CPP
D:\DROPBOX\DEVELOPMENT\GAMES\GAME A MONTH\02 - TETRIS\TETRIS\RELEASE\LABEL.OBJ
^D:\DROPBOX\DEVELOPMENT\GAMES\GAME A MONTH\02 - TETRIS\TETRIS\SOURCE\LOADINGSTATE.CPP
D:\DROPBOX\DEVELOPMENT\GAMES\GAME A MONTH\02 - TETRIS\TETRIS\RELEASE\LOADINGSTATE.OBJ
^D:\DROPBOX\DEVELOPMENT\GAMES\GAME A MONTH\02 - TETRIS\TETRIS\SOURCE\MENUSTATE.CPP
D:\DROPBOX\DEVELOPMENT\GAMES\GAME A MONTH\02 - TETRIS\TETRIS\RELEASE\MENUSTATE.OBJ
^D:\DROPBOX\DEVELOPMENT\GAMES\GAME A MONTH\02 - TETRIS\TETRIS\SOURCE\PAUSESTATE.CPP
D:\DROPBOX\DEVELOPMENT\GAMES\GAME A MONTH\02 - TETRIS\TETRIS\RELEASE\PAUSESTATE.OBJ
^D:\DROPBOX\DEVELOPMENT\GAMES\GAME A MONTH\02 - TETRIS\TETRIS\SOURCE\SETTINGSSTATE.CPP
D:\DROPBOX\DEVELOPMENT\GAMES\GAME A MONTH\02 - TETRIS\TETRIS\RELEASE\SETTINGSSTATE.OBJ
^D:\DROPBOX\DEVELOPMENT\GAMES\GAME A MONTH\02 - TETRIS\TETRIS\SOURCE\STATE.CPP
D:\DROPBOX\DEVELOPMENT\GAMES\GAME A MONTH\02 - TETRIS\TETRIS\RELEASE\STATE.OBJ
^D:\DROPBOX\DEVELOPMENT\GAMES\GAME A MONTH\02 - TETRIS\TETRIS\SOURCE\STATESTACK.CPP
D:\DROPBOX\DEVELOPMENT\GAMES\GAME A MONTH\02 - TETRIS\TETRIS\RELEASE\STATESTACK.OBJ
^D:\DROPBOX\DEVELOPMENT\GAMES\GAME A MONTH\02 - TETRIS\TETRIS\SOURCE\TITLESTATE.CPP
D:\DROPBOX\DEVELOPMENT\GAMES\GAME A MONTH\02 - TETRIS\TETRIS\RELEASE\TITLESTATE.OBJ
^D:\DROPBOX\DEVELOPMENT\GAMES\GAME A MONTH\02 - TETRIS\TETRIS\SOURCE\AVATAR.CPP|D:\DROPBOX\DEVELOPMENT\GAMES\GAME A MONTH\02 - TETRIS\TETRIS\SOURCE\BOARD.CPP|D:\DROPBOX\DEVELOPMENT\GAMES\GAME A MONTH\02 - TETRIS\TETRIS\SOURCE\TETROMINO.CPP
D:\DROPBOX\DEVELOPMENT\GAMES\GAME A MONTH\02 - TETRIS\TETRIS\RELEASE\VC120.PDB
D:\DROPBOX\DEVELOPMENT\GAMES\GAME A MONTH\02 - TETRIS\TETRIS\RELEASE\BOARD.OBJ
^D:\DROPBOX\DEVELOPMENT\GAMES\GAME A MONTH\02 - TETRIS\TETRIS\SOURCE\BOARD.CPP
D:\DROPBOX\DEVELOPMENT\GAMES\GAME A MONTH\02 - TETRIS\TETRIS\RELEASE\BOARD.OBJ
^D:\DROPBOX\DEVELOPMENT\GAMES\GAME A MONTH\02 - TETRIS\TETRIS\SOURCE\AVATAR.CPP|D:\DROPBOX\DEVELOPMENT\GAMES\GAME A MONTH\02 - TETRIS\TETRIS\SOURCE\TETROMINO.CPP
D:\DROPBOX\DEVELOPMENT\GAMES\GAME A MONTH\02 - TETRIS\TETRIS\RELEASE\VC120.PDB
D:\DROPBOX\DEVELOPMENT\GAMES\GAME A MONTH\02 - TETRIS\TETRIS\RELEASE\TETROMINO.OBJ
^D:\DROPBOX\DEVELOPMENT\GAMES\GAME A MONTH\02 - TETRIS\TETRIS\SOURCE\TETROMINO.CPP
D:\DROPBOX\DEVELOPMENT\GAMES\GAME A MONTH\02 - TETRIS\TETRIS\RELEASE\TETROMINO.OBJ
^D:\DROPBOX\DEVELOPMENT\GAMES\GAME A MONTH\02 - TETRIS\TETRIS\SOURCE\PLAYER.CPP
D:\DROPBOX\DEVELOPMENT\GAMES\GAME A MONTH\02 - TETRIS\TETRIS\RELEASE\VC120.PDB
D:\DROPBOX\DEVELOPMENT\GAMES\GAME A MONTH\02 - TETRIS\TETRIS\RELEASE\PLAYER.OBJ
